{
  "cviceni": {
    "version": {
      "global": "<%= version %>",
      "content": 2
    },
    "katalog": [
      "test",
      "public"
    ],
    "language": "cs",
    "slug": "proc-branili-prujezdu",
    "nazev": "Proč bránili průjezdu?",
    "autor": [
      "Vojtěch Ripka"
    ],
    "klicovaSlova": {
      "rvp": [
        "Československo 50. léta",
        "technika"
      ],
      "koncept": [
        "propaganda"
      ],
      "b4": [
        "dobové perspektivy"
      ],
      "historylab": [
        "formulujeme a ověřujeme hypotézu"
      ]
    },
    "casovaOsa": {
      "roky": [
        1951
      ],
      "epochy": [
        {
          "refId": "czech",
          "obdobi": [
            "poválečná doba a nástup komunismu"
          ]
        },
        {
          "refId": "world",
          "obdobi": []
        }
      ]
    },
    "anotace": {
      "ucitel": "Žáci pátrají po příběhu zátarasů na železné oponě v situaci studené války. Hledají souvislost přejezdu vlaku z Československa do SRN s následně vybudovanými zátarasy na kolejích a situaci nahlížejí z obou stran mocenského konfliktu.",
      "verejna": "Při procházce krajinou objevíte záhadné kameny u kolejí. Možná vás ani nenapadne, že se za nimi skrývá příběh 107 lidí, velkých mediálních válek a dramatických titulků. Pojďme ho společně rekonstruovat."
    },
    "trvani": 30,
    "obtiznost": "",
    "funkce": [
      "lupa",
      "cteni",
      "text",
      "svg",
      "text-editor"
    ],
    "pdf": {
      "doporucenyPostup": "proc-branili-prujezdu.pdf"
    },
    "uvodniObrazek": "proc-branili-prujezdu/pic-04-1280w.jpg",
    "id": 23
  },
  "slajd": [
    {
      "class": [
        "half-slide-previous"
      ],
      "zadani": {
        "hlavni": "Co je na fotografiích?",
        "rozsirujici": "Označte důležité prvky na fotografiích a popište je."
      },
      "napoveda": {
        "aktivity": [
          "svg"
        ],
        "text": "Tahem myši levým tlačítkem kreslíte do obrazu. Nakliknutím na nakreslený tvar pravým tlačítkem otevřete menu s nabídkou úkonů: změnit barvu tvaru, (T) doplnit textový komentář, (X) smazat nakliknutý objekt."
      },
      "svg": {
        "soubory": [
          {
            "id": "svg-1",
            "soubor": "proc-branili-prujezdu/pic-00-1024w.jpg",
            "funkce": [
              "text",
              "kresleni"
            ]
          },
          {
            "id": "svg-2",
            "soubor": "proc-branili-prujezdu/pic-01-1024w.jpg",
            "funkce": [
              "text",
              "kresleni"
            ]
          }
        ]
      },
      "popisky": [
        "Zdroj: ABS"
      ]
    },
    {
      "class": [
        "half-slide-active"
      ],
      "zadani": {
        "hlavni": "Co podle vás fotografie zachycují?",
        "rozsirujici": ""
      },
      "napoveda": {
        "aktivity": [
          "text"
        ],
        "text": ""
      },
      "uzivatelskyText": {
        "otazky": [
          {
            "id": "text-1",
            "zadani": "",
            "instrukce": "Myslím si, že…",
            "minDelka": 0,
            "maxDelka": 400
          }
        ]
      }
    },
    {
      "class": [
        "half-slide-previous"
      ],
      "zadani": {
        "hlavni": "Pozorně si prohlédněte i další fotografie.",
        "rozsirujici": ""
      },
      "napoveda": {
        "aktivity": [
          "lupa"
        ],
        "text": ""
      },
      "prameny": [
        "proc-branili-prujezdu/pic-02-1280w.jpg",
        "proc-branili-prujezdu/pic-03-1280w.jpg",
        "proc-branili-prujezdu/pic-04-1280w.jpg"
      ],
      "popisky": [
        "Zdroj: www.fofifo.wz.cz"
      ]
    },
    {
      "class": [
        "half-slide-active"
      ],
      "zadani": {
        "hlavni": "Odpovězte na otázky.",
        "rozsirujici": ""
      },
      "napoveda": {
        "aktivity": [
          "text"
        ],
        "text": ""
      },
      "uzivatelskyText": {
        "otazky": [
          {
            "id": "text-2",
            "zadani": "K čemu zařízení slouží?",
            "instrukce": "Myslím si, že…",
            "minDelka": 0,
            "maxDelka": 400
          },
          {
            "id": "text-3",
            "zadani": "Kde by mohlo být umístěno a kdy? Odkud vedou koleje a kam?",
            "instrukce": "Myslím si, že…",
            "minDelka": 0,
            "maxDelka": 400
          }
        ]
      }
    },
    {
      "class": [
        "half-slide-previous"
      ],
      "zadani": {
        "hlavni": "Nový důkaz.",
        "rozsirujici": "Prohlédněte si fotografii a přečtěte popisek."
      },
      "napoveda": {
        "aktivity": [
          "lupa"
        ],
        "text": ""
      },
      "prameny": [
        "proc-branili-prujezdu/pic-05-1280w.jpg"
      ],
      "popisky": [
        "„Lokomotiva objíždí soupravu na nádraží Selb-Plösberg, kam vedla trať z Aše. Nádraží je poslední zastávkou lokální trati Hof-Selb. Lokomotiva je v postavení, ve kterém přijela z Aše, ale byla odpojena, aby mohli doplnit vodu a upravit popelník a dýmnici. Vrácena byla až za několik dní, včetně vlakové soupravy.“ Nádraží Selb, Německá spolková republika, vlak č. 3717, 11. září 1951. Foto neznámý autor. Zdroj: www.fofifo.wz.cz"
      ]
    },
    {
      "class": [
        "half-slide-active"
      ],
      "zadani": {
        "hlavni": "Co zachycuje fotografie?",
        "rozsirujici": "Jaká situace může být na fotografii zachycena? Jak souvisí s předchozími fotografiemi?"
      },
      "napoveda": {
        "aktivity": [
          "text"
        ],
        "text": ""
      },
      "uzivatelskyText": {
        "otazky": [
          {
            "id": "text-4",
            "instrukce": "Myslím si, že…",
            "minDelka": 0,
            "maxDelka": 400
          }
        ]
      }
    },
    {
      "class": [
        ""
      ],
      "zadani": {
        "hlavni": "Přečtěte si text letáku.",
        "rozsirujici": "Vyznačte pasáže, jež vám přinášejí nové poznatky."
      },
      "napoveda": {
        "aktivity": [
          "text-editor"
        ],
        "text": "Levým tlačítkem myši zabarvíte zvolené slovo nebo slovní spojení. Otevře se vám nabídka, v níž zvolíte označovanou kategorii. Křížkem lze označení smazat."
      },
      "textovyEditor": {
        "galerie": [
          {
            "soubor": "proc-branili-prujezdu/pic-06-1024h.jpg"
          },
          {
            "soubor": "proc-branili-prujezdu/pic-07-1024h.jpg"
          }
        ],
        "texty": [
          {
            "id": 0,
            "text": "text-00",
            "funkce": "zvyraznovani",
            "menu": [
              {
                "title": "Označit důležitou pasáž",
                "commandName": "duleziteLetak",
                "color": "red"
              }
            ]
          }
        ]
      },
      "popisky": [
        "Leták, který americká tajná služba CIC shazovala pomocí balónů na podzim 1951 na území Československa. Zdroj: ABS"
      ]
    },
    {
      "class": [
        ""
      ],
      "zadani": {
        "hlavni": "Přečtěte si novinový článek.",
        "rozsirujici": "Vyznačte pasáže, jež vám přinášejí nové poznatky."
      },
      "napoveda": {
        "aktivity": [
          "text-editor"
        ],
        "text": "Levým tlačítkem myši zabarvíte zvolené slovo nebo slovní spojení. Otevře se vám nabídka, v níž zvolíte označovanou kategorii. Křížkem lze označení smazat."
      },
      "textovyEditor": {
        "galerie": [
          {
            "soubor": "proc-branili-prujezdu/pic-08-1024h.jpg"
          }
        ],
        "texty": [
          {
            "id": 1,
            "text": "text-01",
            "funkce": "zvyraznovani",
            "menu": [
              {
                "title": "Označit důležitou pasáž",
                "commandName": "duleziteClanek",
                "color": "red"
              }
            ]
          }
        ]
      },
      "popisky": [
        "Zdroj: Ivan Skála: Gangsteři, Rudé právo, 18. září 1951"
      ]
    },
    {
      "class": [
        ""
      ],
      "zadani": {
        "hlavni": "Co nového jste se dozvěděli o tzv. vlaku svobody?",
        "rozsirujici": ""
      },
      "napoveda": {
        "aktivity": [
          "text"
        ],
        "text": ""
      },
      "uzivatelskyText": {
        "otazky": [
          {
            "id": "text-5",
            "zadani": "",
            "instrukce": "Myslím si, že…",
            "minDelka": 0,
            "maxDelka": 400
          }
        ]
      }
    },
    {
      "class": [
        "half-slide-previous"
      ],
      "zadani": {
        "hlavni": "Seřaďte fotografie podle období vzniku.",
        "rozsirujici": ""
      },
      "napoveda": {
        "aktivity": [
          "razeni"
        ],
        "text": "Kliknutím na fotografii a tahem myši přesuňte fotografii na požadovanou pozici mezi ostatní položky."
      },
      "razeni": {
        "id": "razeni-1",
        "typ": "horizontalni",
        "objekty": [
          {
            "medium": "obrazek",
            "objekt": "proc-branili-prujezdu/pic-00-1280w.jpg"
          },
          {
            "medium": "obrazek",
            "objekt": "proc-branili-prujezdu/pic-02-1280w.jpg"
          },
          {
            "medium": "obrazek",
            "objekt": "proc-branili-prujezdu/pic-05-1280w.jpg"
          }
        ]
      }
    },
    {
      "class": [
        "half-slide-active"
      ],
      "zadani": {
        "hlavni": "Shrňte výsledky svého pátrání.",
        "rozsirujici": "S pomocí nového důkazu a dokumentů znovu odpovězte na otázku, k čemu zařízení sloužilo."
      },
      "napoveda": {
        "aktivity": [
          "text"
        ],
        "text": ""
      },
      "uzivatelskyText": {
        "otazky": [
          {
            "id": "text-6",
            "instrukce": "Myslím si, že…",
            "minDelka": 0,
            "maxDelka": 400
          }
        ]
      }
    }
  ]
}
